[ {
  "uid" : "6506f7ce0ce3e0d7",
  "name" : "CreateDisbursalWalletTest",
  "time" : {
    "start" : 1581000076000,
    "stop" : 1581000129910,
    "duration" : 53910
  },
  "status" : "passed",
  "severity" : "normal"
}, {
  "uid" : "7d2d28cddd8ecb30",
  "name" : "BusinessWalletBalanceCheckTest",
  "time" : {
    "start" : 1581000023000,
    "stop" : 1581000075600,
    "duration" : 52600
  },
  "status" : "passed",
  "severity" : "normal"
}, {
  "uid" : "2ec18b68d27b28ed",
  "name" : "MerchantAccountAndIFSCTest",
  "time" : {
    "start" : 1581000130000,
    "stop" : 1581000195310,
    "duration" : 65310
  },
  "status" : "failed",
  "severity" : "normal"
}, {
  "uid" : "ca63ffbe5080a193",
  "name" : "AddFundTest",
  "time" : {
    "start" : 1580999945000,
    "stop" : 1581000022970,
    "duration" : 77970
  },
  "status" : "failed",
  "severity" : "normal"
}, {
  "uid" : "b4f0b68d0ea8fb88",
  "name" : "SerchByAccountNameTest",
  "time" : {
    "start" : 1581000195000,
    "stop" : 1581000282280,
    "duration" : 87280
  },
  "status" : "passed",
  "severity" : "normal"
} ]