Transaction_ID,Order_ID,Merchant_Unique_Ref,Transaction_Date,Updated_Date,Transaction_Type,Status,MID,Merchant_Name,Customer_ID,Customer_Nickname,Customer_Phone_No.,Customer_Email_ID,Amount,Commission,GST,Merchant_Order_ID,Payout_ID,Channel,UTR_No.,Payout_Date,Settled_Date,Payment_Mode,Issuing_Bank,Reference_Transaction_ID,POS_ID,Merchant_Ref_ID,External_Serial_No.,Commission_Rate,Product_Code,GMV_Tier,Transaction_Slab,Request_Type,Refund_Type,Refund_Actor,Split_Flag,Split_MID,Split_Id
'20190822111212800110168141484020087','UMPAUTOMATION134771271335',,'2019-08-22 08:56:07','2019-08-22 08:56:07','ACQUIRING','SUCCESS','qNLEbz38834473442956','Book Store','216810000049542929145',,'94****9109','sachin1.gir****@paytm.com',2.00,0.04,0.01,,'20190822211213810500168096345996782','WEB','2019082211121381181680988958450','2019-08-22 00:00:00','2019-08-22 08:56:08','PPI',,,,,,,'51051000100000000001',,,'OFFLINE',,,,,
'20190822111212800110168142684093156','UMPAUTOMATION268798426894',,'2019-08-22 08:56:06','2019-08-22 08:56:06','ACQUIRING','SUCCESS','qNLEbz38834473442956','Book Store','216810000049542929145',,'94****9109','sachin1.gir****@paytm.com',1.50,0.03,0.01,,'20190822211213810500168094445995723','WEB','2019082211121381181680988953025','2019-08-22 00:00:00','2019-08-22 08:56:07','PPI',,,,,,,'51051000100000000001',,,'OFFLINE',,,,,
'20190822111212800110168149184049011','UMPAUTOMATION53339060831',,'2019-08-22 07:56:06','2019-08-22 07:56:06','ACQUIRING','SUCCESS','qNLEbz38834473442956','Book Store','216810000049542929145',,'94****9109','sachin1.gir****@paytm.com',2.00,0.04,0.01,,'20190822211213810500168096145879623','WEB','2019082211121381181680988943452','2019-08-22 00:00:00','2019-08-22 07:56:07','PPI',,,,,,,'51051000100000000001',,,'OFFLINE',,,,,
'20190822111212800110168143184042226','UMPAUTOMATION36186507895',,'2019-08-22 07:56:05','2019-08-22 07:56:06','ACQUIRING','SUCCESS','qNLEbz38834473442956','Book Store','216810000049542929145',,'94****9109','sachin1.gir****@paytm.com',1.50,0.03,0.01,,'20190822211213810500168091445878233','WEB','2019082211121381181680988962204','2019-08-22 00:00:00','2019-08-22 07:56:06','PPI',,,,,,,'51051000100000000001',,,'OFFLINE',,,,,
'20190822111212800110168142484073928','UMPAUTOMATION177660724146',,'2019-08-22 12:56:05','2019-08-22 12:56:05','ACQUIRING','SUCCESS','qNLEbz38834473442956','Book Store','216810000049542929145',,'94****9109','sachin1.gir****@paytm.com',2.00,0.04,0.01,,'20190822211213810500168095945980360','WEB','2019082211121381181680989013356','2019-08-22 00:00:00','2019-08-22 12:56:06','PPI',,,,,,,'51051000100000000001',,,'OFFLINE',,,,,
'20190822111212800110168144184144565','UMPAUTOMATION203760881892',,'2019-08-22 12:56:04','2019-08-22 12:56:04','ACQUIRING','SUCCESS','qNLEbz38834473442956','Book Store','216810000049542929145',,'94****9109','sachin1.gir****@paytm.com',1.50,0.03,0.01,,'20190822211213810500168091745878348','WEB','2019082211121381181680989003643','2019-08-22 00:00:00','2019-08-22 12:56:05','PPI',,,,,,,'51051000100000000001',,,'OFFLINE',,,,,
'20190822111212800110168146384096259','UMPAUTOMATION52698258732',,'2019-08-22 11:56:05','2019-08-22 11:56:05','ACQUIRING','SUCCESS','qNLEbz38834473442956','Book Store','216810000049542929145',,'94****9109','sachin1.gir****@paytm.com',2.00,0.04,0.01,,'20190822211213810500168098645987576','WEB','2019082211121381181680988998419','2019-08-22 00:00:00','2019-08-22 11:56:06','PPI',,,,,,,'51051000100000000001',,,'OFFLINE',,,,,
'20190822111212800110168144184076417','UMPAUTOMATION266909047746',,'2019-08-22 11:56:04','2019-08-22 11:56:04','ACQUIRING','SUCCESS','qNLEbz38834473442956','Book Store','216810000049542929145',,'94****9109','sachin1.gir****@paytm.com',1.50,0.03,0.01,,'20190822211213810500168092045892644','WEB','2019082211121381181680988996824','2019-08-22 00:00:00','2019-08-22 11:56:05','PPI',,,,,,,'51051000100000000001',,,'OFFLINE',,,,,
'20190822111212800110168146984099102','UMPAUTOMATION95291857603',,'2019-08-22 10:56:06','2019-08-22 10:56:07','ACQUIRING','SUCCESS','qNLEbz38834473442956','Book Store','216810000049542929145',,'94****9109','sachin1.gir****@paytm.com',2.00,0.04,0.01,,'20190822211213810500168090345875408','WEB','2019082211121381181680988982320','2019-08-22 00:00:00','2019-08-22 10:56:07','PPI',,,,,,,'51051000100000000001',,,'OFFLINE',,,,,
'20190822111212800110168141684084835','UMPAUTOMATION216993200646',,'2019-08-22 10:56:05','2019-08-22 10:56:06','ACQUIRING','SUCCESS','qNLEbz38834473442956','Book Store','216810000049542929145',,'94****9109','sachin1.gir****@paytm.com',1.50,0.03,0.01,,'20190822211213810500168097845894519','WEB','2019082211121381181680988982319','2019-08-22 00:00:00','2019-08-22 10:56:06','PPI',,,,,,,'51051000100000000001',,,'OFFLINE',,,,,
'20190822111212800110168146584096034','UMPAUTOMATION215883458077',,'2019-08-22 09:56:05','2019-08-22 09:56:05','ACQUIRING','SUCCESS','qNLEbz38834473442956','Book Store','216810000049542929145',,'94****9109','sachin1.gir****@paytm.com',2.00,0.04,0.01,,'20190822211213810500168096645986123','WEB','2019082211121381181680988971945','2019-08-22 00:00:00','2019-08-22 09:56:06','PPI',,,,,,,'51051000100000000001',,,'OFFLINE',,,,,
'20190822111212800110168141984046117','UMPAUTOMATION8494673737',,'2019-08-22 09:56:04','2019-08-22 09:56:05','ACQUIRING','SUCCESS','qNLEbz38834473442956','Book Store','216810000049542929145',,'94****9109','sachin1.gir****@paytm.com',1.50,0.03,0.01,,'20190822211213810500168097345894484','WEB','2019082211121381181680988962613','2019-08-22 00:00:00','2019-08-22 09:56:05','PPI',,,,,,,'51051000100000000001',,,'OFFLINE',,,,,
