[2019-10-23T17:50:31.832] [INFO] default - Successfully able to enter the value '9466219109' in to field 'User Name'.
[2019-10-23T17:50:32.027] [INFO] default - Successfully able to enter the value 'paytm@123' in to field 'Password'.
[2019-10-23T17:50:38.029] [INFO] default - Successfully able to enter the value 'Great portal I am happy with UI' in to field 'Feedback Text Box'.
