[2019-10-18T12:36:39.828] [INFO] default - Successfully able to enter the value '9466219109' in to field 'User Name'.
[2019-10-18T12:36:40.086] [INFO] default - Successfully able to enter the value 'paytm@123' in to field 'Password'.
[2019-10-18T12:36:48.042] [INFO] default - Successfully able to enter the value '/home/vikas/repos/ump2_automation/data/downloadedFiles/Quick_Bill_Invoice6085005444.csv' in to field 'Upload bulk file'.
