[2019-09-20T15:48:05.842] [INFO] default - Successfully able to enter the value '9466219109' in to field 'User Name'.
[2019-09-20T15:48:05.990] [INFO] default - Successfully able to enter the value 'paytm@123' in to field 'Password'.
[2019-09-20T15:48:09.870] [INFO] default - Successfully able to enter the value 'fasfa27161803415' in to field 'Purpose of Payment(Description)'.
[2019-09-20T15:48:10.193] [INFO] default - Successfully able to enter the value '20' in to field 'Enter Amount'.
