[2019-09-30T14:02:35.057] [INFO] default - Successfully able to enter the value '9466219109' in to field 'User Name'.
[2019-09-30T14:02:35.294] [INFO] default - Successfully able to enter the value 'paytm@123' in to field 'Password'.
[2019-09-30T14:02:40.162] [INFO] default - Successfully able to enter the value '`' in to field 'Amount Enter `'.
[2019-09-30T14:02:40.708] [INFO] default - Successfully able to enter the value '~' in to field 'Amount Enter ~'.
[2019-09-30T14:02:41.241] [INFO] default - Successfully able to enter the value '@' in to field 'Amount Enter @'.
[2019-09-30T14:02:41.788] [INFO] default - Successfully able to enter the value '$' in to field 'Amount Enter $'.
[2019-09-30T14:02:42.297] [INFO] default - Successfully able to enter the value '%' in to field 'Amount Enter %'.
[2019-09-30T14:02:42.843] [INFO] default - Successfully able to enter the value '^' in to field 'Amount Enter ^'.
[2019-09-30T14:02:43.368] [INFO] default - Successfully able to enter the value '&' in to field 'Amount Enter &'.
[2019-09-30T14:02:43.891] [INFO] default - Successfully able to enter the value '*' in to field 'Amount Enter *'.
[2019-09-30T14:02:44.506] [INFO] default - Successfully able to enter the value '(' in to field 'Amount Enter ('.
[2019-09-30T14:02:45.209] [INFO] default - Successfully able to enter the value ')' in to field 'Amount Enter )'.
[2019-09-30T14:02:45.769] [INFO] default - Successfully able to enter the value '-' in to field 'Amount Enter -'.
[2019-09-30T14:02:46.408] [INFO] default - Successfully able to enter the value '_' in to field 'Amount Enter _'.
[2019-09-30T14:02:47.101] [INFO] default - Successfully able to enter the value '+' in to field 'Amount Enter +'.
[2019-09-30T14:02:47.717] [INFO] default - Successfully able to enter the value '=' in to field 'Amount Enter ='.
[2019-09-30T14:02:48.296] [INFO] default - Successfully able to enter the value '|' in to field 'Amount Enter |'.
[2019-09-30T14:02:48.892] [INFO] default - Successfully able to enter the value '[' in to field 'Amount Enter ['.
[2019-09-30T14:02:49.439] [INFO] default - Successfully able to enter the value '{' in to field 'Amount Enter {'.
[2019-09-30T14:02:49.985] [INFO] default - Successfully able to enter the value ']' in to field 'Amount Enter ]'.
[2019-09-30T14:02:50.492] [INFO] default - Successfully able to enter the value '}' in to field 'Amount Enter }'.
[2019-09-30T14:02:50.992] [INFO] default - Successfully able to enter the value ';' in to field 'Amount Enter ;'.
[2019-09-30T14:02:51.488] [INFO] default - Successfully able to enter the value ':' in to field 'Amount Enter :'.
[2019-09-30T14:02:51.983] [INFO] default - Successfully able to enter the value ''' in to field 'Amount Enter ''.
[2019-09-30T14:02:52.544] [INFO] default - Successfully able to enter the value '>' in to field 'Amount Enter >'.
[2019-09-30T14:02:53.093] [INFO] default - Successfully able to enter the value '<' in to field 'Amount Enter <'.
[2019-09-30T14:02:53.661] [INFO] default - Successfully able to enter the value '?' in to field 'Amount Enter ?'.
[2019-09-30T14:02:54.163] [INFO] default - Successfully able to enter the value '/' in to field 'Amount Enter /'.
[2019-09-30T14:02:54.699] [INFO] default - Successfully able to enter the value ',' in to field 'Amount Enter ,'.
[2019-09-30T14:02:55.220] [INFO] default - Successfully able to enter the value 'a' in to field 'Amount Enter a'.
[2019-09-30T14:02:55.725] [INFO] default - Successfully able to enter the value 'm' in to field 'Amount Enter m'.
[2019-09-30T14:02:56.257] [INFO] default - Successfully able to enter the value 'D' in to field 'Amount Enter D'.
[2019-09-30T14:02:56.794] [INFO] default - Successfully able to enter the value 'Z' in to field 'Amount Enter Z'.
