[2019-10-01T14:54:38.027] [INFO] default - Successfully able to enter the value '9466219109' in to field 'User Name'.
[2019-10-01T14:54:38.211] [INFO] default - Successfully able to enter the value 'paytm@123' in to field 'Password'.
[2019-10-01T14:54:43.833] [INFO] default - Successfully able to enter the value 'abcde218661417995' in to field 'Purpose of Payment(Description)'.
[2019-10-01T14:54:44.245] [INFO] default - Successfully able to enter the value '20' in to field 'Enter Amount'.
