[2019-10-15T14:07:47.440] [INFO] default - Successfully able to enter the value '9466219109' in to field 'User Name'.
[2019-10-15T14:07:47.631] [INFO] default - Successfully able to enter the value 'paytm@123' in to field 'Password'.
[2019-10-15T14:07:52.111] [INFO] default - Successfully able to enter the value '/home/vikas/repos/ump2_automation/data/downloadedFiles/InvalidAmount127720116645.csv' in to field 'Upload bulk file'.
