[2019-10-03T14:34:25.211] [INFO] default - Successfully able to enter the value '9466219109' in to field 'User Name'.
[2019-10-03T14:34:25.458] [INFO] default - Successfully able to enter the value 'paytm@123' in to field 'Password'.
[2019-10-03T14:34:33.326] [INFO] default - Successfully able to enter the value '/home/vikas/repos/ump2_automation/data/downloadedFiles/FileTest259683123429.csv' in to field 'Upload bulk file'.
